{
  "profiles": {
    "DotnetNuget.ConsoleApplication": {
      "commandName": "Project",
      "commandLineArgs": "myParam",
      "environmentVariables": {
        "ASPNETCORE_ENVIRONMENT": "%ASPNETCORE_ENVIRONMENT%"
      }
    }
  }
}